---
http_interactions:
- request:
    method: get
    uri: https://api.pexels.com/v1/search?per_page=1&query=City%20of%20denver,co
    body:
      encoding: US-ASCII
      string: ''
    headers:
      Authorization:
      - 563492ad6f917000010000015db19d868d6e41f8a2ea8fa923a5e2cd
      User-Agent:
      - Faraday v2.2.0
      Accept-Encoding:
      - gzip;q=1.0,deflate;q=0.6,identity;q=0.3
      Accept:
      - "*/*"
  response:
    status:
      code: 200
      message: OK
    headers:
      Date:
      - Mon, 07 Mar 2022 00:45:39 GMT
      Content-Type:
      - application/json; charset=utf-8
      Transfer-Encoding:
      - chunked
      Connection:
      - keep-alive
      Cf-Ray:
      - 6e7f4f414a5dc7c9-DEN
      Access-Control-Allow-Origin:
      - "*"
      Cache-Control:
      - max-age=0, private, must-revalidate
      Etag:
      - W/"0f993a0831d2a13ac360ea42df1617f2"
      Set-Cookie:
      - __cf_bm=Jv2oXOiHCsnRxtql5V6k7hdOW_Cb96RFHwFNd5iUT5Q-1646613939-0-AczpCe+xoH5qDUq0n4omDZYTOSQiriL84Dqwl7CypAv3Gs+6K9NCLAzTqvCp9aZZF3mZjD1vFLeoB4db6jLFgek=;
        path=/; expires=Mon, 07-Mar-22 01:15:39 GMT; domain=.pexels.com; HttpOnly;
        Secure; SameSite=None
      - _mkra_stck=mysql%3A1646613944.6780305; path=/; max-age=10; expires=Mon, 07
        Mar 2022 00:45:49 GMT; HttpOnly
      Cf-Cache-Status:
      - DYNAMIC
      Expect-Ct:
      - max-age=604800, report-uri="https://report-uri.cloudflare.com/cdn-cgi/beacon/expect-ct"
      X-Frame-Options:
      - SAMEORIGIN
      X-Ratelimit-Remaining:
      - '20000'
      X-Request-Id:
      - a6fd093a-6502-40e8-92a0-0932f0dd34a3
      X-Runtime:
      - '0.116498'
      X-Server:
      - alpaca
      Vary:
      - Accept-Encoding
      Server:
      - cloudflare
      Alt-Svc:
      - h3=":443"; ma=86400, h3-29=":443"; ma=86400
    body:
      encoding: ASCII-8BIT
      string: '{"page":1,"per_page":1,"photos":[{"id":3751010,"width":3712,"height":5568,"url":"https://www.pexels.com/photo/red-and-white-concrete-building-during-night-time-3751010/","photographer":"Colin
        Lloyd","photographer_url":"https://www.pexels.com/@colin-lloyd-2120291","photographer_id":2120291,"avg_color":"#5A4741","src":{"original":"https://images.pexels.com/photos/3751010/pexels-photo-3751010.jpeg","large2x":"https://images.pexels.com/photos/3751010/pexels-photo-3751010.jpeg?auto=compress\u0026cs=tinysrgb\u0026dpr=2\u0026h=650\u0026w=940","large":"https://images.pexels.com/photos/3751010/pexels-photo-3751010.jpeg?auto=compress\u0026cs=tinysrgb\u0026h=650\u0026w=940","medium":"https://images.pexels.com/photos/3751010/pexels-photo-3751010.jpeg?auto=compress\u0026cs=tinysrgb\u0026h=350","small":"https://images.pexels.com/photos/3751010/pexels-photo-3751010.jpeg?auto=compress\u0026cs=tinysrgb\u0026h=130","portrait":"https://images.pexels.com/photos/3751010/pexels-photo-3751010.jpeg?auto=compress\u0026cs=tinysrgb\u0026fit=crop\u0026h=1200\u0026w=800","landscape":"https://images.pexels.com/photos/3751010/pexels-photo-3751010.jpeg?auto=compress\u0026cs=tinysrgb\u0026fit=crop\u0026h=627\u0026w=1200","tiny":"https://images.pexels.com/photos/3751010/pexels-photo-3751010.jpeg?auto=compress\u0026cs=tinysrgb\u0026dpr=1\u0026fit=crop\u0026h=200\u0026w=280"},"alt":"Red
        and White Concrete Building during Night Time"}],"total_results":8000,"next_page":"https://api.pexels.com/v1/search/?page=2\u0026per_page=1\u0026query=City+of+denver%2Cco"}'
  recorded_at: Mon, 07 Mar 2022 00:45:39 GMT
recorded_with: VCR 6.0.0
